…
``` r
library(wdspaleo)
library(ggplot2)
filename = example_filename("seguin_whitney2022")
print(filename)
```

    ## [1] "https://www.ncei.noaa.gov/pub/data/paleo/contributions_by_author/whitney2022/seguin_whitney2022.txt"

``` r
X = WDS_paleo(filename)
X$data
```

    ## # A tibble: 330 × 7
    ##     year d18O_avg d18O_sd d15N_start_year d15N_end_year d15N_avg d15N_sd
    ##    <dbl>    <dbl>   <dbl>           <dbl>         <dbl>    <dbl>   <dbl>
    ##  1  1684       NA      NA              NA            NA       NA      NA
    ##  2  1685       NA      NA              NA            NA       NA      NA
    ##  3  1686       NA      NA              NA            NA       NA      NA
    ##  4  1687       NA      NA              NA            NA       NA      NA
    ##  5  1688       NA      NA              NA            NA       NA      NA
    ##  6  1689       NA      NA              NA            NA       NA      NA
    ##  7  1690       NA      NA              NA            NA       NA      NA
    ##  8  1691       NA      NA              NA            NA       NA      NA
    ##  9  1692       NA      NA              NA            NA       NA      NA
    ## 10  1693       NA      NA              NA            NA       NA      NA
    ## # ℹ 320 more rows
…
